rep 30 ( fw 5; rot 90; fw 10; rot 90;
fw 10; rot 90; fw 15; rot 90;
fw 15; rot 90; fw 20; rot 90;
fw 20; rot 90; fw 25; rot 90;
fw 25; rot 90; fw 30; rot 90;
fw 30; rot 90; fw 35; rot 90;
fw 35; rot 90; fw 40; rot 90;
fw 40; rot 90; fw 45; rot 90;
fw 45; rot 90; fw 50; rot 90;
fw 50; rot 90; fw 55; rot 90;
fw 55; rot 90; fw 60; rot 90;
fw 60; rot 90; fw 65; rot 90;
fw 65; rot 90; fw 70; rot 90;
fw 70; rot 90; fw 75; rot 90;
fw 75; rot 90; fw 80; rot 90;
fw 80; rot 90; fw 85; rot 90;
fw 85; rot 90; fw 90; rot 90;
fw 90; rot 90; fw 95; rot 90;
fw 95; rot 90; fw 100; rot 90;
fw 100; rot 90; fw 105; rot 90)